{
    "homeserver": "https://matrix.org",
    "username": "@username:matrix.org",
    "device_id": "",
    "device_name": "The OBbot",
    "access_token": "",
    "password": "",
    "storage_path": "./bot_storage/",
    "storage_path_temp": "./bot_storage_temp/",
    "keys_file": "./bot_storage/keys.txt",
    "keys_password": "",
    "database": "./bot_storage/database.db",
    "log_file": "./bot_storage/obbot.log",
    "can_admin_request_any_subreddit": true,
    "can_admin_request_any_LemmyCommunities": true,
    "can_admin_bypass_fdpmode": true,
    "reddit_clientid": "",
    "reddit_clientsecret": "",
    "lemmy_instance": "https://lemmy.world",
    "lemmy_username": "",
    "lemmy_password": "",
    "lang": "fr",
    "prefix": "!",
    "fdpmode": "1",
    "savingfeature": "1",
    "currencyName": "MineGold",
    "nsfw_rooms": [
        ""
    ],
    "listAdmin": [
        "@lanseria:matrix.org"
    ],
    "listMods": [
        "@sadtusk:matrix.org"
    ],
    "permissionsMods": [
        {
            "canAskAnythingReddit": true,
            "canAskAnythingLemmy": true,
            "canClearMessages": true,
            "canKickUsers": false,
            "canChangeFDPModeStatus": false,
            "canChangeNSFWRoomStatus": false,
            "canChangeSavingFeature": false,
            "canChangeLanguage": false,
            "canEditRedditAllowedLists": false,
            "canEditLemmyAllowedLists": false,
            "canChangePrefix": false
        }
    ],
    "accent": "yellow",
    "white": "white",
    "light_bg": "#2b2f33",
    "dark_bg": "#1f2225",
    "dark_font": "grey",
    "card_font": "./fonts/Ubuntu-R.ttf",
    "allowedImages": [
        ".png",
        ".jpg",
        ".gif",
        ".webp",
        ".jpeg"
    ],
    "allowedVideos": [
        ".mp4",
        ".mkv",
        ".gifv",
        ".webm"
    ],
    "listAllowedUserRedditNSFW": [
    ],
    "listAllowedUserRedditSFW": [
    ],
    "listAllowedSubredditNSFW": [
        "boobs",
        "ass",
        "legalteens",
        "pussy",
        "squirting",
        "tits"
    ],
    "listAllowedSubredditSFW": [
        "memes",
        "linuxmemes",
        "programmerhumour",
        "natureislit",
        "earthporn",
        "unixporn",
        "greentext",
        "wallpapers"
    ],
    "listAllowedUserLemmyNSFW": [
    ],
    "listAllowedUserLemmySFW": [
    ],
    "listAllowedLemmyCommunitiesNSFW": [
        "boobs",
        "ass",
        "legalteens",
        "pussy",
        "squirting",
        "tits"
    ],
    "listAllowedLemmyCommunitiesSFW": [
        "memes",
        "linuxmemes",
        "programmerhumour",
        "natureislit",
        "earthporn",
        "unixporn",
        "greentext",
        "wallpapers"
    ],
    "AliasesNSFW": [
        "nsfw",
        "ass",
        "pussy",
        "teens",
        "tits",
        "boobs",
        "squirt"
    ],
    "AliasesSFW": [
        "greentext"
    ],
    "animeAliasesNSFW": [
        "lewd",
        "neko"
    ],
    "animeAliasesSFW": [
        "kiss"
    ],
    "toSortAnime": [
        "ngif",
        "eroyuri",
        "eron",
        "gasm",
        "erofeet",
        "ero"
    ],
    "listAnimeSearchOptionsSFW": [
        "tickle",
        "feed",
        "poke",
        "slap",
        "pat",
        "kiss",
        "neko",
        "cuddle",
        "hug",
        "smug",
        "baka",
        "cry",
        "lick"
    ],
    "listAnimeSearchOptionsNSFW": [
        "feet",
        "cum",
        "lesbian",
        "lewd",
        "4k",
        "bj",
        "anal",
        "gasm",
        "hentai",
        "blowjob",
        "pussy",
        "tits",
        "spank",
        "boobs",
        "wallpapers"
    ],
    "listFileNameEmote": [
        "myrespect",
        "itsyou"
    ],
    "levels_xp": [
        [
            "level0",
            0,
            "0"
        ],
        [
            "level1",
            100,
            "1"
        ],
        [
            "level2",
            274,
            "2"
        ],
        [
            "level3",
            533,
            "3"
        ],
        [
            "level4",
            889,
            "4"
        ],
        [
            "level5",
            1353,
            "5"
        ],
        [
            "level6",
            1938,
            "6"
        ],
        [
            "level7",
            2655,
            "7"
        ],
        [
            "level8",
            3515,
            "8"
        ],
        [
            "level9",
            4531,
            "9"
        ],
        [
            "level10",
            5713,
            "10"
        ],
        [
            "level11",
            7074,
            "11"
        ],
        [
            "level12",
            8625,
            "12"
        ],
        [
            "level13",
            10378,
            "13"
        ],
        [
            "level14",
            12344,
            "14"
        ],
        [
            "level15",
            14535,
            "15"
        ],
        [
            "level16",
            16963,
            "16"
        ],
        [
            "level17",
            19640,
            "17"
        ],
        [
            "level18",
            22576,
            "18"
        ],
        [
            "level19",
            25784,
            "19"
        ],
        [
            "level20",
            29275,
            "20"
        ],
        [
            "level21",
            33061,
            "21"
        ],
        [
            "level22",
            37153,
            "22"
        ],
        [
            "level23",
            41564,
            "23"
        ],
        [
            "level24",
            46304,
            "24"
        ],
        [
            "level25",
            51386,
            "25"
        ],
        [
            "level26",
            56821,
            "26"
        ],
        [
            "level27",
            62620,
            "27"
        ],
        [
            "level28",
            68796,
            "28"
        ],
        [
            "level29",
            75360,
            "29"
        ],
        [
            "level30",
            82324,
            "30"
        ],
        [
            "level31",
            89699,
            "31"
        ],
        [
            "level32",
            97497,
            "32"
        ],
        [
            "level33",
            105729,
            "33"
        ],
        [
            "level34",
            114408,
            "34"
        ],
        [
            "level35",
            123544,
            "35"
        ],
        [
            "level36",
            133150,
            "36"
        ],
        [
            "level37",
            143237,
            "37"
        ],
        [
            "level38",
            153817,
            "38"
        ],
        [
            "level39",
            164901,
            "39"
        ],
        [
            "level40",
            176501,
            "40"
        ],
        [
            "level41",
            188629,
            "41"
        ],
        [
            "level42",
            201296,
            "42"
        ],
        [
            "level43",
            214515,
            "43"
        ],
        [
            "level44",
            228295,
            "44"
        ],
        [
            "level45",
            242650,
            "45"
        ],
        [
            "level46",
            257591,
            "46"
        ],
        [
            "level47",
            273130,
            "47"
        ],
        [
            "level48",
            289277,
            "48"
        ],
        [
            "level49",
            306046,
            "49"
        ],
        [
            "level50",
            323446,
            "50"
        ]
    ],
    "SourceURL": "https://gitlab.com/Krafting/obbot"
}